id,First Name,Last Name,Email,Profile Image Url,Username,Password,Address,City,Sub City,Country,Zip code,Package,Admin Moderation,Account Blocked,Company Name,Phone,Primary Category ID,Categories ID,apt,Default Booking,Featured
1,Henderson,Casely,hcasely0@digg.com,https://robohash.org/doloribusexcepturiipsa.png?size=50x50&set=set1,hcasely0,eU6NJuRxW5,78 Talmadge Hill,Addis Ababa,Bole,Ethiopia,0006-0577,package_1,TRUE,TRUE,Merck Sharp & Dohme Corp.,718-441-4917,13,"13,14,16,17",1,free,TRUE
2,Johannes,Bernardos,jbernardos1@sphinn.com,https://robohash.org/faceresintconsequuntur.png?size=50x50&set=set1,jbernardos1,LMr33cAmkdnV,2 Onsgard Lane,Addis Ababa,Yeka,Ethiopia,0591-0749,package_2,TRUE,TRUE,"Watson Laboratories, Inc.",214-971-7010,14,2,2,free,TRUE
3,Emelina,Gallear,egallear2@nasa.gov,https://robohash.org/dolorequibusdammagnam.jpg?size=50x50&set=set1,egallear2,Rkn73eYW,29039 Brickson Park Junction,Addis Ababa,Nifas Silk Lafto,Ethiopia,0185-0025,package_0,TRUE,TRUE,"Eon Labs, Inc.",816-631-7954,15,"13,15",3,free,TRUE
4,Margot,Corns,mcorns3@google.fr,https://robohash.org/abautemnihil.png?size=50x50&set=set1,mcorns3,5WZqSAEKu8,86 Huxley Terrace,Addis Ababa,Arada,Ethiopia,49288-0681,package_1,TRUE,TRUE,"Antigen Laboratories, Inc.",505-716-8849,17,"15,17,16",4,free,TRUE
5,Gerrilee,Murtell,gmurtell4@about.com,https://robohash.org/voluptatibusnihilut.jpg?size=50x50&set=set1,gmurtell4,IL6gfBz1,3 Nevada Junction,Addis Ababa,Gulele,Ethiopia,17714-025,package_0,TRUE,TRUE,Advance Pharmaceutical Inc.,404-570-1881,16,5,5,free,TRUE
6,Wallache,Gherardesci,wgherardesci5@washington.edu,https://robohash.org/quidoloret.bmp?size=50x50&set=set1,wgherardesci5,gW5v41KOIWKU,20 Shoshone Court,Addis Ababa,Kolfe Keranyo,Ethiopia,61727-332,package_2,TRUE,TRUE,Homeocare Laboratories,505-462-1875,15,"23,14",6,free,TRUE
7,Cammy,Janczewski,cjanczewski6@youku.com,https://robohash.org/beataesedexercitationem.png?size=50x50&set=set1,cjanczewski6,4lIPvAsjAP,9 Melby Court,Addis Ababa,Akaki Kality,Ethiopia,49614-473,package_3,TRUE,TRUE,The Medicine Shoppe International,330-853-1892,13,7,7,free,TRUE
8,Henderson,Casely,hcasely0@digg.com,https://robohash.org/doloribusexcepturiipsa.png?size=50x50&set=set1,hcasely0,eU6NJuRxW5,78 Talmadge Hill,Addis Ababa,Bole,Ethiopia,0006-0577,package_1,TRUE,TRUE,Merck Sharp & Dohme Corp.,718-441-4917,13,"13,14,16,17",1,free,TRUE
9,Johannes,Bernardos,jbernardos1@sphinn.com,https://robohash.org/faceresintconsequuntur.png?size=50x50&set=set1,jbernardos1,LMr33cAmkdnV,2 Onsgard Lane,Addis Ababa,Yeka,Ethiopia,0591-0749,package_2,TRUE,TRUE,"Watson Laboratories, Inc.",214-971-7010,14,2,2,free,TRUE
10,Emelina,Gallear,egallear2@nasa.gov,https://robohash.org/dolorequibusdammagnam.jpg?size=50x50&set=set1,egallear2,Rkn73eYW,29039 Brickson Park Junction,Addis Ababa,Nifas Silk Lafto,Ethiopia,0185-0025,package_0,TRUE,TRUE,"Eon Labs, Inc.",816-631-7954,15,"13,15",3,free,TRUE
11,Margot,Corns,mcorns3@google.fr,https://robohash.org/abautemnihil.png?size=50x50&set=set1,mcorns3,5WZqSAEKu8,86 Huxley Terrace,Addis Ababa,Arada,Ethiopia,49288-0681,package_1,TRUE,TRUE,"Antigen Laboratories, Inc.",505-716-8849,17,"15,17,16",4,free,TRUE
12,Gerrilee,Murtell,gmurtell4@about.com,https://robohash.org/voluptatibusnihilut.jpg?size=50x50&set=set1,gmurtell4,IL6gfBz1,3 Nevada Junction,Addis Ababa,Gulele,Ethiopia,17714-025,package_0,TRUE,TRUE,Advance Pharmaceutical Inc.,404-570-1881,16,5,5,free,TRUE
13,Wallache,Gherardesci,wgherardesci5@washington.edu,https://robohash.org/quidoloret.bmp?size=50x50&set=set1,wgherardesci5,gW5v41KOIWKU,20 Shoshone Court,Addis Ababa,Kolfe Keranyo,Ethiopia,61727-332,package_2,TRUE,TRUE,Homeocare Laboratories,505-462-1875,15,"23,14",6,free,TRUE
14,Cammy,Janczewski,cjanczewski6@youku.com,https://robohash.org/beataesedexercitationem.png?size=50x50&set=set1,cjanczewski6,4lIPvAsjAP,9 Melby Court,Addis Ababa,Akaki Kality,Ethiopia,49614-473,package_3,TRUE,TRUE,The Medicine Shoppe International,330-853-1892,13,7,7,free,TRUE
15,Henderson,Casely,hcasely0@digg.com,https://robohash.org/doloribusexcepturiipsa.png?size=50x50&set=set1,hcasely0,eU6NJuRxW5,78 Talmadge Hill,Addis Ababa,Bole,Ethiopia,0006-0577,package_1,TRUE,TRUE,Merck Sharp & Dohme Corp.,718-441-4917,13,"13,14,16,17",1,free,TRUE
16,Johannes,Bernardos,jbernardos1@sphinn.com,https://robohash.org/faceresintconsequuntur.png?size=50x50&set=set1,jbernardos1,LMr33cAmkdnV,2 Onsgard Lane,Addis Ababa,Yeka,Ethiopia,0591-0749,package_2,TRUE,TRUE,"Watson Laboratories, Inc.",214-971-7010,14,2,2,free,TRUE
17,Emelina,Gallear,egallear2@nasa.gov,https://robohash.org/dolorequibusdammagnam.jpg?size=50x50&set=set1,egallear2,Rkn73eYW,29039 Brickson Park Junction,Addis Ababa,Nifas Silk Lafto,Ethiopia,0185-0025,package_0,TRUE,TRUE,"Eon Labs, Inc.",816-631-7954,15,"13,15",3,free,TRUE
18,Margot,Corns,mcorns3@google.fr,https://robohash.org/abautemnihil.png?size=50x50&set=set1,mcorns3,5WZqSAEKu8,86 Huxley Terrace,Addis Ababa,Arada,Ethiopia,49288-0681,package_1,TRUE,TRUE,"Antigen Laboratories, Inc.",505-716-8849,17,"15,17,16",4,free,TRUE
19,Gerrilee,Murtell,gmurtell4@about.com,https://robohash.org/voluptatibusnihilut.jpg?size=50x50&set=set1,gmurtell4,IL6gfBz1,3 Nevada Junction,Addis Ababa,Gulele,Ethiopia,17714-025,package_0,TRUE,TRUE,Advance Pharmaceutical Inc.,404-570-1881,16,5,5,free,TRUE
20,Wallache,Gherardesci,wgherardesci5@washington.edu,https://robohash.org/quidoloret.bmp?size=50x50&set=set1,wgherardesci5,gW5v41KOIWKU,20 Shoshone Court,Addis Ababa,Kolfe Keranyo,Ethiopia,61727-332,package_2,TRUE,TRUE,Homeocare Laboratories,505-462-1875,15,"23,14",6,free,TRUE
21,Cammy,Janczewski,cjanczewski6@youku.com,https://robohash.org/beataesedexercitationem.png?size=50x50&set=set1,cjanczewski6,4lIPvAsjAP,9 Melby Court,Addis Ababa,Akaki Kality,Ethiopia,49614-473,package_3,TRUE,TRUE,The Medicine Shoppe International,330-853-1892,13,7,7,free,TRUE
